{
  "Comment.nvim": { "branch": "master", "commit": "e30b7f2008e52442154b66f7c519bfd2f1e32acb" },
  "LuaSnip": { "branch": "master", "commit": "b84eeb3641b08324287587b426ec974b888390d9" },
  "cmp-nvim-lsp": { "branch": "main", "commit": "39e2eda76828d88b773cc27a3f61d2ad782c922d" },
  "cmp-path": { "branch": "main", "commit": "91ff86cd9c29299a64f968ebb45846c485725f23" },
  "cmp_luasnip": { "branch": "master", "commit": "05a9ab28b53f71d1aece421ef32fee2cb857a843" },
  "conform.nvim": { "branch": "master", "commit": "eff40c4f5fdf7ae8f269b258047d1bd7cee50f02" },
  "copilot.vim": { "branch": "release", "commit": "25f73977033c597d530c7ab0e211d99b60927d2d" },
  "express_line.nvim": { "branch": "master", "commit": "30f04edb9647d9ea7c08d0bdbfad33faf5bcda57" },
  "fidget.nvim": { "branch": "main", "commit": "d855eed8a06531a7e8fd0684889b2943f373c469" },
  "gitsigns.nvim": { "branch": "main", "commit": "58bd9e98d8e3c5a1c98af312e85247ee1afd3ed2" },
  "lazy.nvim": { "branch": "main", "commit": "077102c5bfc578693f12377846d427f49bc50076" },
  "lazygit.nvim": { "branch": "main", "commit": "dc56df433bfbf107fee0139e187eb9750878fa84" },
  "lspkind-nvim": { "branch": "master", "commit": "cff4ae321a91ee3473a92ea1a8c637e3a9510aec" },
  "markdown-preview.nvim": { "branch": "master", "commit": "a923f5fc5ba36a3b17e289dc35dc17f66d0548ee" },
  "mason-lspconfig.nvim": { "branch": "main", "commit": "62360f061d45177dda8afc1b0fd1327328540301" },
  "mason-tool-installer.nvim": { "branch": "main", "commit": "c5e07b8ff54187716334d585db34282e46fa2932" },
  "mason.nvim": { "branch": "main", "commit": "e2f7f9044ec30067bc11800a9e266664b88cda22" },
  "melange-nvim": { "branch": "master", "commit": "f626d41b9110e6ab853538d8b939979a0f1adfeb" },
  "mini.nvim": { "branch": "main", "commit": "d8faae693d266ee4f3a2bf1fb7ca4bc81314c3e9" },
  "nvim-cmp": { "branch": "main", "commit": "ae644feb7b67bf1ce4260c231d1d4300b19c6f30" },
  "nvim-colorizer.lua": { "branch": "master", "commit": "194ec600488f7c7229668d0e80bd197f3a2b84ff" },
  "nvim-lspconfig": { "branch": "master", "commit": "6c505d4220b521f3b0e7b645f6ce45fa914d0eed" },
  "nvim-spectre": { "branch": "master", "commit": "ba7fb777edff6c1fbbeffd343e113af64c04e90a" },
  "nvim-treesitter": { "branch": "master", "commit": "88aad97312787c11154afbe16068fc2b1e18b249" },
  "nvim-web-devicons": { "branch": "master", "commit": "3722e3d1fb5fe1896a104eb489e8f8651260b520" },
  "oil.nvim": { "branch": "master", "commit": "fcca212c2e966fc3dec1d4baf888e670631d25d1" },
  "plenary.nvim": { "branch": "master", "commit": "a3e3bc82a3f95c5ed0d7201546d5d2c19b20d683" },
  "render-markdown.nvim": { "branch": "main", "commit": "1c7b5ee30d8cf6e52628862dbd06f2e23ecb888e" },
  "tailwindcss-colorizer-cmp.nvim": { "branch": "main", "commit": "3d3cd95e4a4135c250faf83dd5ed61b8e5502b86" },
  "telescope-fzf-native.nvim": { "branch": "main", "commit": "cf48d4dfce44e0b9a2e19a008d6ec6ea6f01a83b" },
  "telescope-ui-select.nvim": { "branch": "master", "commit": "6e51d7da30bd139a6950adf2a47fda6df9fa06d2" },
  "telescope.nvim": { "branch": "0.1.x", "commit": "a0bbec21143c7bc5f8bb02e0005fa0b982edc026" },
  "todo-comments.nvim": { "branch": "main", "commit": "8f45f353dc3649cb9b44cecda96827ea88128584" },
  "tree-sitter-rescript": { "branch": "main", "commit": "4606cd81c4c31d1d02390fee530858323410a74c" },
  "vim-be-good": { "branch": "master", "commit": "4fa57b7957715c91326fcead58c1fa898b9b3625" },
  "vim-devicons": { "branch": "master", "commit": "71f239af28b7214eebb60d4ea5bd040291fb7e33" },
  "vim-rescript": { "branch": "master", "commit": "aea571554254ab9da4f997b20d2ebca2fd099c52" },
  "vim-sleuth": { "branch": "master", "commit": "1cc4557420f215d02c4d2645a748a816c220e99b" },
  "vim-startify": { "branch": "master", "commit": "4e089dffdad46f3f5593f34362d530e8fe823dcf" },
  "vim-visual-multi": { "branch": "master", "commit": "38b0e8d94a5499ccc17d6159763d32c79f53417b" }
}
